DATA / STAT 334 - 1 Choosing a Visualization
…
library(carData)
Salaries <- Salaries |> as_tibble() |>
  mutate(salary = salary / 1000)
theme_set(theme_minimal())
Salaries

# A tibble: 397 × 6
   rank      discipline yrs.since.phd yrs.service sex    salary
   <fct>     <fct>              <int>       <int> <fct>   <dbl>
 1 Prof      B                     19          18 Male    140. 
 2 Prof      B                     20          16 Male    173. 
 3 AsstProf  B                      4           3 Male     79.8
 4 Prof      B                     45          39 Male    115  
 5 Prof      B                     40          41 Male    142. 
 6 AssocProf B                      6           6 Male     97  
 7 Prof      B                     30          23 Male    175  
 8 Prof      B                     45          45 Male    148. 
 9 Prof      B                     21          20 Male    119. 
10 Prof      B                     18          18 Female  129  
# ℹ 387 more rows
…
