DATA / STAT 334 - 15 Shiny Reactivity
…
w_small <- major_tennis_w |> select(value, winner_seed, w_ace, w_df,
                                    w_svperc, w_firstwon, w_secondwon) |>
  rename(seed = winner_seed, ace = w_ace, df = w_df, svperc = w_svperc,
         firstwon = w_firstwon, secondwon = w_secondwon)

l_small <- major_tennis_l |> select(value, loser_seed, l_ace, l_df,
                                    l_svperc, l_firstwon, l_secondwon) |>
  rename(seed = loser_seed, ace = l_ace, df = l_df, svperc = l_svperc,
         firstwon = l_firstwon, secondwon = l_secondwon)

df <- bind_rows(w_small, l_small) |>
  rename(player = "value")
df
#> # A tibble: 3,600 × 7
#>   player             seed    ace    df svperc firstwon secondwon
#>   <chr>              <chr> <dbl> <dbl>  <dbl>    <dbl>     <dbl>
#> 1 Daniil Medvedev    4        10     1   63.5     84.8      73.7
#> 2 Jo-Wilfried Tsonga <NA>     12     2   63.2     79.1      60  
#> 3 Daniil Medvedev    4        12     3   64.8     70.6      67.6
#> 4 Jeremy Chardy      <NA>     10     8   61.7     75.9      50  
#> 5 Jo-Wilfried Tsonga <NA>     11     3   57.8     81.1      40.7
#> 6 Alex De Minaur     7         1     1   77.6     76.3      72.7
#> # ℹ 3,594 more rows
…
