DATA / STAT 334 - 1 Choosing a Visualization
…
library(tidyverse)
popularity_df <- read_csv("https://raw.githubusercontent.com/highamm/ds234_quarto/main/data_online/geom_popularity.csv")
popularity_df

What do you think the most used geom is? And what would be a useful graph that you would have encountered in DATA/STAT 234 to visualize the popularity of the most popular geoms?

Throughout the rest of this section, we will use the Salaries data set from the carData package, which contains variables on the salaries of professors at a particular institution (not this institution though!), including the professor’s rank (AsstProf, AssocProf, or Prof), discipline (A for theoretical and B for applied), yrs.service, the years of service, sex (treated as binary in this data set: Male or Female), and salary (in dollars).

library(tidyverse)
library(carData)
Salaries <- Salaries |> as_tibble() |>
  mutate(salary = salary / 1000)
theme_set(theme_minimal())
Salaries
#> # A tibble: 397 × 6
#>   rank      discipline yrs.since.phd yrs.service sex   salary
#>   <fct>     <fct>              <int>       <int> <fct>  <dbl>
#> 1 Prof      B                     19          18 Male   140. 
#> 2 Prof      B                     20          16 Male   173. 
#> 3 AsstProf  B                      4           3 Male    79.8
#> 4 Prof      B                     45          39 Male   115  
#> 5 Prof      B                     40          41 Male   142. 
#> 6 AssocProf B                      6           6 Male    97  
#> # ℹ 391 more rows
…
