DATA / STAT 334 - 2 Core Viz Concepts
…
geom_point(), geom_line(), and geom_smooth() for two quantitative variables

geom_boxplot() and geom_violin() for a categorical and a quantitative variable

geom_bar(), geom_tile(), and geom_bin_2d() for two categorical variables.

Other geoms, like geom_text() and geom_label() allow you to annotate a plot. And there are many others: geom_hexbin(), geom_area(), and geom_hline() are a few of the more useful ones.

Let’s practice making some basic plots with these 3 parameters using the penguins data set in the palmerpenguins library. The data set contains observations on 344 penguins. Penguin species, island, bill_length_mm, sex, and a few other measurements are recorded.

## install.packages("palmerpenguins")
library(palmerpenguins)
library(tidyverse)
penguins
#> # A tibble: 344 × 8
#>   species island   bill_length_mm bill_depth_mm flipper_length_mm body_mass_g
#>   <fct>   <fct>             <dbl>         <dbl>             <int>       <int>
#> 1 Adelie  Torgers…           39.1          18.7               181        3750
#> 2 Adelie  Torgers…           39.5          17.4               186        3800
#> 3 Adelie  Torgers…           40.3          18                 195        3250
#> 4 Adelie  Torgers…           NA            NA                  NA          NA
#> 5 Adelie  Torgers…           36.7          19.3               193        3450
#> 6 Adelie  Torgers…           39.3          20.6               190        3650
#> # ℹ 338 more rows
#> # ℹ 2 more variables: sex <fct>, year <int>
…
