DATA / STAT 334 - 5 DATA/STAT 234 Review
…
Population, the population size of the country

GDPcapita, the Gross Domestic Product per population

Region, the region the country is in

Make sure the hpi-tidy.csv data set is in a /data folder in your current R Project directory. Run the code in the following chunk to read in the data:

library(tidyverse)
library(here)
theme_set(theme_minimal())
hpi_df <- read_csv(here("data/hpi-tidy.csv"))
hpi_df
#> # A tibble: 151 × 11
#>   HPIRank Country     LifeExpectancy Wellbeing HappyLifeYears Footprint
#>     <dbl> <chr>                <dbl>     <dbl>          <dbl>     <dbl>
#> 1     109 Afghanistan           48.7      4.76           29.0     0.540
#> 2      18 Albania               76.9      5.27           48.8     1.81 
#> 3      26 Algeria               73.1      5.24           46.2     1.65 
#> 4     127 Angola                51.1      4.21           28.2     0.891
#> 5      17 Argentina             75.9      6.44           55.0     2.71 
#> 6      53 Armenia               74.2      4.37           41.9     1.73 
#> # ℹ 145 more rows
#> # ℹ 5 more variables: HappyPlanetIndex <dbl>, Population <dbl>,
#> #   GDPcapita <dbl>, GovernanceRank <chr>, Region <chr>
…
## combine the data frames
df_2017_present <- bind_rows(df_all)
df_2017_present <- df_2017_present |>
  mutate(Title = str_remove_all(Title, pattern = "\"")) |> ## get rid of \ in title
  rename(no = No., 
         title = Title, 
         artist = `Artist(s)`) ## make column names match with billboard package

wiki_tibble <- as_tibble(wiki_hot_100s) |> ## convert billboard data to tibble
  mutate(year = as.numeric(year),
         no = as.integer(no)) ## change variable types to match with scraped data

hot100_df <- bind_rows(wiki_tibble, df_2017_present)
hot100_df
#> # A tibble: 6,201 × 4
#>      no title                     artist               year
#>   <int> <chr>                     <chr>               <dbl>
#> 1     1 Theme from A Summer Place Percy Faith          1960
#> 2     2 He'll Have to Go          Jim Reeves           1960
#> 3     3 Cathy's Clown             The Everly Brothers  1960
#> 4     4 Running Bear              Johnny Preston       1960
#> 5     5 Teen Angel                Mark Dinning         1960
#> 6     6 I'm Sorry                 Brenda Lee           1960
#> # ℹ 6,195 more rows
…
