DATA / STAT 334 - 3 Applied Concepts
…
A short description of the Happy Planet Index data is given below. The Happy Planet Index (HPI) is a measure of how efficiently a country uses its ecological resources to give its citizens long “happy” lives.

But, the basic idea is that the HPI is a metric that computes how happy and healthy a country’s citizens are, but adjusts that by that country’s ecological footprint (how much “damage” the country does to planet Earth). The data set was obtained from https://github.com/aepoetry/happy_planet_index_2016. Variables in the data set are:

HPIRank, the rank of the country’s Happy Planet Index (lower is better)

Country, the name of the country

Region, the area of the world the country is in

HappyPlanetIndex, our primary variable of interest, described above

hpi_df <- read_csv("https://raw.githubusercontent.com/highamm/ds234_quarto/main/data_online/hpi-tidy.csv")
hpi_df
#> # A tibble: 151 × 11
#>   HPIRank Country     LifeExpectancy Wellbeing HappyLifeYears Footprint
#>     <dbl> <chr>                <dbl>     <dbl>          <dbl>     <dbl>
#> 1     109 Afghanistan           48.7      4.76           29.0     0.540
#> 2      18 Albania               76.9      5.27           48.8     1.81 
#> 3      26 Algeria               73.1      5.24           46.2     1.65 
#> 4     127 Angola                51.1      4.21           28.2     0.891
#> 5      17 Argentina             75.9      6.44           55.0     2.71 
#> 6      53 Armenia               74.2      4.37           41.9     1.73 
#> # ℹ 145 more rows
#> # ℹ 5 more variables: HappyPlanetIndex <dbl>, Population <dbl>,
#> #   GDPcapita <dbl>, GovernanceRank <chr>, Region <chr>
…
