DATA / STAT 334 - 6 Mapping Data
…
Note

We unfortunately do not have time to talk about map projection in detail, but, this is an area you would want to read more about if your final project involves mapping of some kind. Or, if you are interested, you can read more about projections at these two links: https://medium.com/nightingale/understanding-map-projections-8b23ecbd2a2f or https://mdsr-book.github.io/mdsr2e/ch-spatial.html#sec:projections.

Now that we’ve created a base map, we probably want to add a variable to fill by to examine patterns across the states. The resulting map is sometimes called a “choropleth” map. We will use the state_stats data set from the usdata package.

## install.packages("usdata")
library(usdata)
state_stats
#> # A tibble: 51 × 24
#>   state abbr   fips pop2010 pop2000 homeownership multiunit income med_income
#>   <fct> <fct> <dbl>   <dbl>   <dbl>         <dbl>     <dbl>  <dbl>      <dbl>
#> 1 Alab… AL        1  4.78e6  4.45e6          71.1      15.5  22984      42081
#> 2 Alas… AK        2  7.10e5  6.27e5          64.7      24.6  30726      66521
#> 3 Ariz… AZ        4  6.39e6  5.13e6          67.4      20.7  25680      50448
#> 4 Arka… AR        5  2.92e6  2.67e6          67.7      15.2  21274      39267
#> 5 Cali… CA        6  3.73e7  3.39e7          57.4      30.7  29188      60883
#> 6 Colo… CO        8  5.03e6  4.30e6          67.6      25.6  30151      56456
#> # ℹ 45 more rows
#> # ℹ 15 more variables: poverty <dbl>, fed_spend <dbl>, land_area <dbl>,
#> #   smoke <dbl>, murder <dbl>, robbery <dbl>, agg_assault <dbl>,
#> #   larceny <dbl>, motor_theft <dbl>, soc_sec <dbl>, nuclear <dbl>,
#> #   coal <dbl>, tr_deaths <dbl>, tr_deaths_no_alc <dbl>, unempl <dbl>
…
