DATA / STAT 334 - 8 STAT 213 Review
…
glance(coffee_mod)
#> # A tibble: 1 × 12
#>   r.squared adj.r.squared sigma statistic p.value    df logLik   AIC   BIC
#>       <dbl>         <dbl> <dbl>     <dbl>   <dbl> <dbl>  <dbl> <dbl> <dbl>
#> 1     0.820         0.819  1.14     1214.       0     5 -2073. 4160. 4197.
#> # ℹ 3 more variables: deviance <dbl>, df.residual <int>, nobs <int>

you should notice a lot of statistics that you are familiar with from STAT 213, including r.squared, adj.r.squared, sigma (the residual standard error), statistic (the overall F-statistic), AIC, and BIC. We are going to focus mainly on coefficient interpretation in this course, so there is no need to worry if you do not remember exactly what, for example, BIC is.

8.1.3 augment()

augment() is my personal favourite of the three. The function returns a tibble that contains all of the variables used to fit the model appended with commonly used diagnostic statistics like the fitted values (.fitted), cook’s distance (.cooksd), .hat values for leverage, and residuals (.resid).

augment(coffee_mod)
#> # A tibble: 1,338 × 12
#>   total_cup_points species aroma flavor sweetness moisture .fitted  .resid
#>              <dbl> <chr>   <dbl>  <dbl>     <dbl>    <dbl>   <dbl>   <dbl>
#> 1             90.6 Arabica  8.67   8.83        10     0.12    90.7 -0.0702
#> 2             89.9 Arabica  8.75   8.67        10     0.12    90.0 -0.0612
#> 3             89.8 Arabica  8.42   8.5         10     0       88.8  0.917 
#> 4             89   Arabica  8.17   8.58        10     0.11    88.6  0.406 
#> 5             88.8 Arabica  8.25   8.5         10     0.12    88.3  0.525 
#> 6             88.8 Arabica  8.58   8.42        10     0.11    88.5  0.360 
#> # ℹ 1,332 more rows
#> # ℹ 4 more variables: .hat <dbl>, .sigma <dbl>, .cooksd <dbl>,
#> #   .std.resid <dbl>
…
We could also find observations with high leverage

augment_df |> filter(.hat > 0.2)
#> # A tibble: 1 × 12
#>   total_cup_points species aroma flavor sweetness moisture .fitted .resid
#>              <dbl> <chr>   <dbl>  <dbl>     <dbl>    <dbl>   <dbl>  <dbl>
#> 1             59.8 Arabica   7.5   6.67      1.33      0.1    60.5 -0.632
#> # ℹ 4 more variables: .hat <dbl>, .sigma <dbl>, .cooksd <dbl>,
#> #   .std.resid <dbl>

or observations that are outliers:

augment_df |> filter(.std.resid > 3 | .std.resid < -3)
#> # A tibble: 25 × 12
#>   total_cup_points species aroma flavor sweetness moisture .fitted .resid
#>              <dbl> <chr>   <dbl>  <dbl>     <dbl>    <dbl>   <dbl>  <dbl>
#> 1             82.8 Arabica  8.08   8.17     10        0.12    86.4  -3.62
#> 2             82.3 Arabica  7.75   8.08      6.67     0.11    78.7   3.65
#> 3             80.7 Arabica  7.67   7.5       6.67     0       75.9   4.80
#> 4             80   Arabica  7.58   7.75     10        0       83.7  -3.69
#> 5             79.9 Arabica  7.83   7.67     10        0       83.7  -3.78
#> 6             79.2 Arabica  7.17   7.42      6.67     0.1     74.4   4.73
#> # ℹ 19 more rows
#> # ℹ 4 more variables: .hat <dbl>, .sigma <dbl>, .cooksd <dbl>,
#> #   .std.resid <dbl>
…
8.1.4 Exercises

Exercise 1. Examine the penguins data set in the palmerpenguins package:

library(palmerpenguins)
penguins
#> # A tibble: 344 × 8
#>   species island   bill_length_mm bill_depth_mm flipper_length_mm body_mass_g
#>   <fct>   <fct>             <dbl>         <dbl>             <int>       <int>
#> 1 Adelie  Torgers…           39.1          18.7               181        3750
#> 2 Adelie  Torgers…           39.5          17.4               186        3800
#> 3 Adelie  Torgers…           40.3          18                 195        3250
#> 4 Adelie  Torgers…           NA            NA                  NA          NA
#> 5 Adelie  Torgers…           36.7          19.3               193        3450
#> 6 Adelie  Torgers…           39.3          20.6               190        3650
#> # ℹ 338 more rows
#> # ℹ 2 more variables: sex <fct>, year <int>
…
