DATA / STAT 334 - 10 Linear Model Visualization
…
10  Linear Model Visualization

The purpose of this section is to use the modelr package to visualize potentially complex linear models. We will begin with how to use the modelr package to visualize a linear regression model with a single quantitative predictor in order to see how the package works. We will then expand our usage to include models with categorical predictors, interaction terms, and quadratic (or higher order) terms.

Throughout this section, we will use a data set on course evaluations at the University of Texas Austin from the openintro package. Each row of the data set corresponds to a course at UT Austin. Variables that we will use include course evaluation score (on a 1-5 scale), age of professor, bty_avg (the attractiveness of the professor), ethnicity (either minority or not minority) and gender (either male or female in this data set).

Note

We will assume each observation is independent in our linear model. For those of you who have had STAT 313, it is more reasonable to fit a random intercepts model with prof_id as the random effect term, as each professor appears more than once in the data set (and it is likely that course scores for a professor are not independent).

library(openintro)
evals
#> # A tibble: 463 × 23
#>   course_id prof_id score rank  ethnicity gender language   age cls_perc_eval
#>       <int>   <int> <dbl> <fct> <fct>     <fct>  <fct>    <int>         <dbl>
#> 1         1       1   4.7 tenu… minority  female english     36          55.8
#> 2         2       1   4.1 tenu… minority  female english     36          68.8
#> 3         3       1   3.9 tenu… minority  female english     36          60.8
#> 4         4       1   4.8 tenu… minority  female english     36          62.6
#> 5         5       2   4.6 tenu… not mino… male   english     59          85  
#> 6         6       2   4.3 tenu… not mino… male   english     59          87.5
#> # ℹ 457 more rows
#> # ℹ 14 more variables: cls_did_eval <int>, cls_students <int>,
#> #   cls_level <fct>, cls_profs <fct>, cls_credits <fct>, bty_f1lower <int>,
#> #   bty_f1upper <int>, bty_f2upper <int>, bty_m1lower <int>,
#> #   bty_m1upper <int>, bty_m2upper <int>, bty_avg <dbl>, pic_outfit <fct>,
#> #   pic_color <fct>
…
Exercise 1. By “hand”, verify that the pred value in the first row of model_df can be calculated simply by plugging in 29 into the fitted regression equation obtained from mod_age.

Exercise 2. In data_grid(age = seq_range(age, n = 6)), why does it not matter what value is chosen for n in this example (as long as n is greater than or equal to 2)? Change n to be a different integer and verify that the plot does not change. Then, write a one to two sentence explanation of why the value of n does not matter here.

Exercise 3. Fit the following model, which includes an age^2 term. Then, run the rest of the code in the chunk to use modelr to obtain predictions for the age values in grid with both the mod_age model and the mod_agesq model. There are now 12 rows in model_df: 6 corresponding to predictions with the mod_age model and 6 corresponding to predictions with the mod_agesq model.

mod_agesq <- lm(score ~ age + I(age ^ 2), data = evals) 

grid <- evals |>
  data_grid(
    age = seq_range(age, n = 6)
  ) 
model_df <- grid |> gather_predictions(mod_age, mod_agesq)
model_df
#> # A tibble: 12 × 3
#>   model     age  pred
#>   <chr>   <dbl> <dbl>
#> 1 mod_age  29    4.29
#> 2 mod_age  37.8  4.24
#> 3 mod_age  46.6  4.19
#> 4 mod_age  55.4  4.13
#> 5 mod_age  64.2  4.08
#> 6 mod_age  73    4.03
#> # ℹ 6 more rows
…
The model contains an interaction between age and bty_avg so the coefficients involving these two terms are very tough to interpret. Our goal is to create a plot that helps interpret this model.

We will use the same strategy outlined in the previous section to create a data frame with predictions for various values of age, bty_avg, and gender. In data_grid(), we now need to give values not only for age, but also for bty_avg, and gender. Note that gender, the categorical predictor is a vector of its possible levels.

grid <- evals |>
  data_grid(
    age = seq_range(age, n = 6),
    bty_avg = seq_range(bty_avg, n = 6),
    gender = c("female", "male")
  ) 
grid
#> # A tibble: 72 × 3
#>     age bty_avg gender
#>   <dbl>   <dbl> <chr> 
#> 1    29    1.67 female
#> 2    29    1.67 male  
#> 3    29    2.97 female
#> 4    29    2.97 male  
#> 5    29    4.27 female
#> 6    29    4.27 male  
#> # ℹ 66 more rows

data_grid() creates one row for each age-bty_avg-gender combination. With 6 values for age, 6 values for bty_avg, and 2 values for gender, grid has 72 rows. We then gather the predictions from this grid with the mod_comp model:

model_df <- grid |> gather_predictions(mod_comp)
model_df
#> # A tibble: 72 × 5
#>   model      age bty_avg gender  pred
#>   <chr>    <dbl>   <dbl> <chr>  <dbl>
#> 1 mod_comp    29    1.67 female  4.29
#> 2 mod_comp    29    1.67 male    4.50
#> 3 mod_comp    29    2.97 female  4.24
#> 4 mod_comp    29    2.97 male    4.45
#> 5 mod_comp    29    4.27 female  4.19
#> 6 mod_comp    29    4.27 male    4.40
#> # ℹ 66 more rows
…
