DATA / STAT 334 - 13 Introduction to Interactivity
…
Variables include the brewery_name, type, address, and state. But, you’ll notice that the beers data set does not include any spatial coordinates that give the locations of the breweries. There is, however, a variable called address: we will use the uszipcodes package to extract the zip code from the address variable so that we can map a brewery to its zip code.

raw_zip <- uszipcodes::get_zip(beers$address)
beers$Zip <- as.integer(uszipcodes::clean_zip(raw_zip))

When you run the code to add the variable Zip to the beers data set, you’ll notice that you’ll get a warning that there are some NA values that were introduced. The functions are not perfect: there are some zip codes that were not properly extracted from the address.

Finally, we join the zip codes, along with their latitudes and longitudes, to the beers data:

## only keep zip, lat, and long
zip_tab <- zip_table |> dplyr::select(Zip, Latitude, Longitude)
beer_location <- inner_join(beers, zip_tab)
beer_location
#> # A tibble: 2,327 × 9
#>   brewery_name     type  address website state state_breweries   Zip Latitude
#>   <chr>            <chr> <chr>   <chr>   <chr>           <dbl> <int>    <dbl>
#> 1 Valley Brewing … Brew… PO Box… http:/… cali…             284 95204     38.0
#> 2 Valley Brewing … Brew… 157 Ad… http:/… cali…             284 95204     38.0
#> 3 Valley Brewing … Micr… 1950 W… http:/… cali…             284 95203     38.0
#> 4 Ukiah Brewing C… Brew… 102 S.… http:/… cali…             284 95482     39.2
#> 5 Tustin Brewing … Brew… 13011 … http:/… cali…             284 92780     33.7
#> 6 Trumer Brauerei  Micr… 1404 4… http:/… cali…             284 94608     37.8
#> # ℹ 2,321 more rows
#> # ℹ 1 more variable: Longitude <dbl>
…
