DATA / STAT 334 - 15 Shiny Reactivity
…
w_small <- major_tennis_w |> select(value, winner_seed, w_ace, w_df,
                                    w_svperc, w_firstwon, w_secondwon) |>
  rename(seed = winner_seed, ace = w_ace, df = w_df, svperc = w_svperc,
         firstwon = w_firstwon, secondwon = w_secondwon)

l_small <- major_tennis_l |> select(value, loser_seed, l_ace, l_df,
                                    l_svperc, l_firstwon, l_secondwon) |>
  rename(seed = loser_seed, ace = l_ace, df = l_df, svperc = l_svperc,
         firstwon = l_firstwon, secondwon = l_secondwon)

df <- bind_rows(w_small, l_small) |>
  rename(player = "value")
df
#> # A tibble: 3,637 × 7
#>   player              seed   ace    df svperc firstwon secondwon
#>   <chr>              <dbl> <dbl> <dbl>  <dbl>    <dbl>     <dbl>
#> 1 Taylor Fritz           3    15     2   61.2     86.5      48.5
#> 2 Frances Tiafoe        NA     3     1   70.4     78.9      37.5
#> 3 Taylor Fritz           3    11     0   62.5     88        63.3
#> 4 Frances Tiafoe        NA     5     4   60.7     83.8      45.8
#> 5 Stefanos Tsitsipas     1     9     1   53.1     82.7      60.9
#> 6 Lorenzo Musetti       NA     2     1   61.0     72        75  
#> # ℹ 3,631 more rows
…
