DATA / STAT 334 - 8 Other Topics
…
8.1.2 Line Plots and Area Plots

Line plots are useful when you are interested in exploring the relationship between two quantitative variables and the quantitative variable on the x-axis only has one y value for each x value (or, if also graphing a categorical variable, one y value for each x value in for each level of the categorical variable). One instance where this commonly arises is for an x-axis variable of some measure of time.

For example, in the babynames data set from the babynames R package, there are variables year, sex, name, and n (number of babies). In each row, the n value is the number of births of babies with that particular name of that sex in that year.

library(babynames)
babynames
#> # A tibble: 1,924,665 × 5
#>    year sex   name          n   prop
#>   <dbl> <chr> <chr>     <int>  <dbl>
#> 1  1880 F     Mary       7065 0.0724
#> 2  1880 F     Anna       2604 0.0267
#> 3  1880 F     Emma       2003 0.0205
#> 4  1880 F     Elizabeth  1939 0.0199
#> 5  1880 F     Minnie     1746 0.0179
#> 6  1880 F     Margaret   1578 0.0162
#> # ℹ 1,924,659 more rows
…
